type,timestamp(ms),accel.raw X,accel.raw Y,accel.raw Z, gyro raw X,gyro raw Y,gyro raw Z,mag. (µT) X,mag. (µT) Y,mag. (µT) Z,GPS present (0/1),GPS Lat degrees,GPS Long degrees,GPS alt,GPS Velocity knots,GPS Velocity degrees,Temp,Pressure,Altitude,CO2_Voltage,calibratedAccelX,calibratedAccelY,calibratedAccelZ,calibratedGyroX,calibratedGyroY,calibratedGyroZ,calibratedMagX,calibratedMagY,calibratedMagZ,groundAHRS_Roll,groundAHRS_Yaw,groundAHRS_Picth,GPS_PosX,GPS_PosY,GPS_PosZ,GPS_VelocityX,GPS_VelocityY,GPS_VelocityZ,,,,,,,,,,,,,,,,,,,,,,,,,,,,,,,,,
100,0,0,0,0,0,0,0,0.00000,0.00000,0.00000,0,0.00000,0.00000,0.00000,0.00000,0.00000,0.00000,0.00000,0.00000,0.00000,0,0,0,0,0.00000,0.00000,0.00000,0,0,0,0.00000,0.00000,0.00000,0.00000,0.00000,0.00000,0,0.00000,0.00000,0.00000,0.00000,0.00000,0.00000,0.00000,0.00000,0.00000,0.00000,0.00000,0.00000,0.00000,0.00000,0.00000,0.00000,0.00000,0.00000,0.00000,0.00000,0.00000,0.00000,0.00000,0.00000,0.00000,0.00000,0.00000,0.00000,0.00000,0.00000,0.00000,0.00000,0.00000,0.00000
55,0,0,0,0,0,0,0,0.00000,0.00000,0.00000,0,0.00000,0.00000,0.00000,0.00000,0.00000,0.00000,0.00000,0.00000,0.00000,0,0,0,0,0.00000,0.00000,0.00000,0,0,0,0.00000,0.00000,0.00000,0.00000,0.00000,0.00000,0,0.00000,0.00000,0.00000,0.00000,0.00000,0.00000,0.00000,0.00000,0.00000,0.00000,0.00000,0.00000,0.00000,0.00000,0.00000,0.00000,0.00000,0.00000,0.00000,0.00000,0.00000,0.00000,0.00000,0.00000,0.00000,0.00000,0.00000,0.00000,0.00000,0.00000,0.00000,0.00000,0.00000,0.00000
100,0,0,0,0,0,0,0,0.00000,0.00000,0.00000,0,0.00000,0.00000,0.00000,0.00000,0.00000,0.00000,0.00000,0.00000,0.00000,0,0,0,0,0.00000,0.00000,0.00000,0,0,0,0.00000,0.00000,0.00000,0.00000,0.00000,0.00000,0,0.00000,0.00000,0.00000,0.00000,0.00000,0.00000,0.00000,0.00000,0.00000,0.00000,0.00000,0.00000,0.00000,0.00000,0.00000,0.00000,0.00000,0.00000,0.00000,0.00000,0.00000,0.00000,0.00000,0.00000,0.00000,0.00000,0.00000,0.00000,0.00000,0.00000,0.00000,0.00000,0.00000,0.00000
100,0,0,0,0,0,0,0,0.00000,0.00000,0.00000,0,0.00000,0.00000,0.00000,0.00000,0.00000,0.00000,0.00000,0.00000,0.00000,0,0,0,0,0.00000,0.00000,0.00000,0,0,0,0.00000,0.00000,0.00000,0.00000,0.00000,0.00000,0,0.00000,0.00000,0.00000,0.00000,0.00000,0.00000,0.00000,0.00000,0.00000,0.00000,0.00000,0.00000,0.00000,0.00000,0.00000,0.00000,0.00000,0.00000,0.00000,0.00000,0.00000,0.00000,0.00000,0.00000,0.00000,0.00000,0.00000,0.00000,0.00000,0.00000,0.00000,0.00000,0.00000,0.00000
100,0,0,0,0,0,0,0,0.00000,0.00000,0.00000,0,0.00000,0.00000,0.00000,0.00000,0.00000,0.00000,0.00000,0.00000,0.00000,0,0,0,0,0.00000,0.00000,0.00000,0,0,0,0.00000,0.00000,0.00000,0.00000,0.00000,0.00000,0,0.00000,0.00000,0.00000,0.00000,0.00000,0.00000,0.00000,0.00000,0.00000,0.00000,0.00000,0.00000,0.00000,0.00000,0.00000,0.00000,0.00000,0.00000,0.00000,0.00000,0.00000,0.00000,0.00000,0.00000,0.00000,0.00000,0.00000,0.00000,0.00000,0.00000,0.00000,0.00000,0.00000,0.00000
