type,timestamp(ms),accel.raw X,accel.raw Y,accel.raw Z, gyro raw X,gyro raw Y,gyro raw Z,mag. (µT) X,mag. (µT) Y,mag. (µT) Z,GPS present (0/1),GPS Lat degrees,GPS Long degrees,GPS alt,Temp BMP,Pressure,Altitude,Temp Thermi,CO2_Voltage,calibratedAccelX,calibratedAccelY,calibratedAccelZ,calibratedGyroX,calibratedGyroY,calibratedGyroZ,calibratedMagX,calibratedMagY,calibratedMagZ,groundAHRS_AccelX,groundAHRS_AccelY,groundAHRS_AccelZ,groundAHRS_Roll,groundAHRS_Yaw,groundAHRS_Picth,ECEF_PosX,ECEF_PosY,ECEF_PosZ,Local_PosX,Local_PosY,Local_PosZ,KF_PosX,KF_PosY,KF_PosZ,FF_VelocityX,KF_VelocityY,KF_VelocityZ,Temp_Correc,AltGPS_Correc,CO2_Voltage_Cleaned,CO2_Concentration,imgCornerTL_Lat,imgCornerTR_Lat,imgCornerBL_Lat,imgCornerTR_Lat,imgCornerTL_Long,imgCornerTR_Long,imgCornerBR_Long,imgCornerTR_Long,,,,,,,,,,,,,
100,0,1,1,1,1,1,1,1,1,1,0,0,0,0,0,0,0,0,0,1139.875,-46.75,167.02441,1.019,1,1.024,658.10797,468.49398,329.68301,0,0,0,0,0,0,0,0,0,0,0,0,0,0,0,0,0,0,0,0,0,0,0,0,0,0,0,0,0,0,0,0,0,0,0,0,0,0,0,0,0,0,0
100,0,1,2,3,1,2,3,1,2,3,0,0,0,0,0,0,0,0,0,1139.875,-45.75,169.02441,1.019,2,3.024,658.10797,469.49398,331.68301,0,0,0,0,0,0,0,0,0,0,0,0,0,0,0,0,0,0,0,0,0,0,0,0,0,0,0,0,0,0,0,0,0,0,0,0,0,0,0,0,0,0,0
100,0,3,2,1,3,2,1,3,2,1,0,0,0,0,0,0,0,0,0,1141.875,-45.75,167.02441,3.019,2,1.024,660.10797,469.49398,329.68301,0,0,0,0,0,0,0,0,0,0,0,0,0,0,0,0,0,0,0,0,0,0,0,0,0,0,0,0,0,0,0,0,0,0,0,0,0,0,0,0,0,0,0
100,0,1,0,1,1,0,1,1,0,1,0,0,0,0,0,0,0,0,0,1139.875,-47.75,167.02441,1.019,0,1.024,658.10797,467.49398,329.68301,0,0,0,0,0,0,0,0,0,0,0,0,0,0,0,0,0,0,0,0,0,0,0,0,0,0,0,0,0,0,0,0,0,0,0,0,0,0,0,0,0,0,0
100,0,0,0,0,0,0,0,0,0,0,0,0,0,0,0,0,0,0,0,1138.875,-47.75,166.02441,0.019,0,0.024,657.10797,467.49398,328.68301,0,0,0,0,0,0,0,0,0,0,0,0,0,0,0,0,0,0,0,0,0,0,0,0,0,0,0,0,0,0,0,0,0,0,0,0,0,0,0,0,0,0,0
