#AccelZeroG_X, AccelZeroG_Y, AccelZeroG_Z
108.45996093,-134.9399414,135.76013183
#AccelResolution_X, AccelResolution_Y, AccelResolution_Z
0.00237104,0.00243699,0.0023924
# Mag offsets,
0,0,0
# Mag transformation matrix,
1,0,0
0,1,0
0,0,1
#GyroZeroRate_X, GyroZeroRate_Y, GyroZeroRate_Z
14.76000022,-9.64000034,-4.53999996
#GyroResolution_X, GyroResolution_Y, GyroResolution_Z
0.0078125,0.0078125,0.0078125
