#AccelZeroG_X, AccelZeroG_Y, AccelZeroG_Z
-371.17968750,-64.55957031,627.76025391
#AccelResolution_X, AccelResolution_Y, AccelResolution_Z
0.00058371,0.00058582,0.00059503
# Mag offsets,,
-13.628,-4.746,1.609
# Mag transformation matrix,,
1.028,-0.078,-0.171
-0.052,0.988,-0.049
-0.019,-0.024,1.204
#GyroZeroRate_X, GyroZeroRate_Y, GyroZeroRate_Z = 
220.54000854,-107.25999451,-683.16003418
#GyroResolution_X, GyroResolution_Y, GyroResolution_Z
0.00875000,0.00875000,0.00875000